{
    "count": 1302,
    "next": "https://pokeapi.co/api/v2/pokemon?offset=11&limit=1",
    "previous": "https://pokeapi.co/api/v2/pokemon?offset=9&limit=1",
    "results": [
        {
            "name": "bulbasaur",
            "url": "https://pokeapi.co/api/v2/pokemon/1/"
        }
    ]
}